# Blender v2.81 (sub 16) OBJ File: 'machine.blend'
# www.blender.org
mtllib machine.mtl
o Cube
v 1.000000 5.046931 -1.103690
v 1.000000 -0.030735 -1.000000
v 1.000000 5.046931 -1.106777
v 1.000000 -0.030735 -0.014410
v -1.000000 5.046931 -1.103690
v -1.000000 -0.030735 -1.000000
v -1.000000 5.046931 -1.106777
v -1.000000 -0.030735 -0.014410
v 1.000000 3.794016 -1.196290
v -1.000000 4.210228 0.554168
v 1.000000 4.210228 0.554168
v -1.000000 3.794016 -1.196290
v 1.000000 5.046931 -4.281038
v -1.000000 5.046931 -4.281038
v 1.000000 4.210228 -4.281038
v -1.000000 4.210228 -4.281038
vt 0.625000 0.500000
vt 0.875000 0.500000
vt 0.875000 0.750000
vt 0.625000 0.750000
vt 0.500000 1.188804
vt 0.986817 1.188804
vt 0.986817 1.877608
vt 0.500000 1.877608
vt 0.500000 0.000000
vt 0.625000 0.000000
vt 0.625000 0.250000
vt 0.500000 0.250000
vt -0.960449 0.500000
vt 0.013183 0.500000
vt 0.013183 1.188804
vt -0.960449 1.188804
vt 0.500000 0.500000
vt 0.500000 0.750000
vt 1.960449 0.500000
vt 0.986817 0.500000
vt 0.986817 0.500000
vt 1.960449 0.500000
vt 0.013183 -0.188804
vt 0.500000 -0.188804
vt 0.013183 -0.877608
vt 0.500000 -0.877608
vt 0.013183 1.877608
vt 0.500000 -0.188804
vt 0.986817 -0.188804
vt 0.500000 0.500000
vt 0.986817 -0.188804
vn 0.0000 -1.0000 0.0000
vn 0.0000 0.8931 0.4499
vn -1.0000 -0.0000 0.0000
vn 1.0000 -0.0000 0.0000
vn 0.0000 1.0000 0.0000
vn 0.0000 -0.0513 -0.9987
vn 0.0000 -0.1329 0.9911
vn 0.0000 0.0000 -1.0000
vn 0.0000 -0.9910 -0.1337
usemtl Material.003
s off
f 1/1/1 5/2/1 7/3/1 3/4/1
f 11/5/2 3/6/2 7/7/2 10/8/2
f 10/9/3 7/10/3 5/11/3 12/12/3
f 6/13/1 2/14/1 4/15/1 8/16/1
f 9/17/4 1/1/4 3/4/4 11/18/4
f 5/19/5 1/20/5 13/21/5 14/22/5
f 6/23/6 12/24/6 9/17/6 2/14/6
f 2/14/4 9/17/4 11/5/4 4/15/4
f 8/25/3 10/26/3 12/24/3 6/23/3
f 4/15/7 11/5/7 10/8/7 8/27/7
f 16/28/8 14/29/8 13/21/8 15/30/8
f 12/24/3 5/31/3 14/29/3 16/28/3
f 9/17/9 12/24/9 16/28/9 15/30/9
f 1/20/4 9/17/4 15/30/4 13/21/4
